%YAML 1.1
%TAG !u! tag:unity3d.com,2011:
--- !u!1045 &1
EditorBuildSettings:
  m_ObjectHideFlags: 0
  serializedVersion: 2
  m_Scenes:
  - enabled: 1
    path: Assets/Scenes/menu.unity
    guid: 56090e20d5c7da64fa393bac0caaa7c1
  - enabled: 1
    path: Assets/Scenes/Nivel1.unity
    guid: 763c9c35c3b0203488f52da65f74d214
  - enabled: 1
    path: Assets/Scenes/Nivel2.unity
    guid: a908445974282854bac7d2fe3ec34250
  - enabled: 1
    path: Assets/Scenes/ganar.unity
    guid: 7c2aff44c3a1f424baaecfab96b6dc9f
  m_configObjects: {}
